{
    "payload": {
        "components": [
                       {
                       "tagName": "component-data-manager-register-notification-store",
                       "type": "DM",
                       "properties": {

                       }
                       }
                       ]
    }
}
