{
    "payload": {
        "components": [
                       {
                       "tagName": "component-data-manager-on-off-store",
                       "type": "DM",
                       "properties": {
                       "host": "http://artichoke.platform.bbva.com/cards/v0/",
                       "country": "mx"
                       }
                       }
                       ]
    }
}
