<?xml version="1.0" encoding="UTF-8"?>
<svg width="18px" height="18px" viewBox="0 0 18 18" version="1.1" xmlns="http://www.w3.org/2000/svg" xmlns:xlink="http://www.w3.org/1999/xlink">
    <!-- Generator: Sketch 45.2 (43514) - http://www.bohemiancoding.com/sketch -->
    <title>3_calendar_icon</title>
    <desc>Created with Sketch.</desc>
    <defs></defs>
    <g id="Icons_Wallet" stroke="none" stroke-width="1" fill="none" fill-rule="evenodd">
        <g id="3_calendar_icon" fill-rule="nonzero" fill="#000000">
            <path d="M14.8181818,2.45454545 L15.9991283,2.45454545 C16.5518945,2.45454545 17,2.905812 17,3.45431345 L17,16.000232 C17,16.5523886 16.5553691,17 15.9991283,17 L2.00087166,17 C1.4481055,17 1,16.5487335 1,16.000232 L1,3.45431345 C1,2.90215683 1.44463086,2.45454545 2.00087166,2.45454545 L3.18181818,2.45454545 L3.18181818,1 L4.63636364,1 L4.63636364,2.45454545 L13.3636364,2.45454545 L13.3636364,1 L14.8181818,1 L14.8181818,2.45454545 Z M3.18181818,4.63636364 L3.18181818,6.09090909 L13.3636364,6.09090909 L14.8181818,4.63636364 L3.18181818,4.63636364 Z M3.90909091,10.4545455 L3.90909091,11.9090909 L5.36363636,11.9090909 L5.36363636,10.4545455 L3.90909091,10.4545455 Z M6.81818182,10.4545455 L6.81818182,11.9090909 L8.27272727,11.9090909 L8.27272727,10.4545455 L6.81818182,10.4545455 Z M9.72727273,10.4545455 L9.72727273,11.9090909 L11.1818182,11.9090909 L11.1818182,10.4545455 L9.72727273,10.4545455 Z M12.6363636,10.4545455 L12.6363636,11.9090909 L14.0909091,11.9090909 L14.0909091,10.4545455 L12.6363636,10.4545455 Z M6.81818182,7.54545455 L6.81818182,9 L8.27272727,9 L8.27272727,7.54545455 L6.81818182,7.54545455 Z M9.72727273,7.54545455 L9.72727273,9 L11.1818182,9 L11.1818182,7.54545455 L9.72727273,7.54545455 Z M12.6363636,7.54545455 L12.6363636,9 L14.0909091,9 L14.0909091,7.54545455 L12.6363636,7.54545455 Z M3.90909091,13.3636364 L3.90909091,14.8181818 L5.36363636,14.8181818 L5.36363636,13.3636364 L3.90909091,13.3636364 Z M6.81818182,13.3636364 L6.81818182,14.8181818 L8.27272727,14.8181818 L8.27272727,13.3636364 L6.81818182,13.3636364 Z M9.72727273,13.3636364 L9.72727273,14.8181818 L11.1818182,14.8181818 L11.1818182,13.3636364 L9.72727273,13.3636364 Z" id="icon-calendar"></path>
        </g>
    </g>
</svg>