<?xml version="1.0" encoding="UTF-8"?>
<svg width="18px" height="18px" viewBox="0 0 18 18" version="1.1" xmlns="http://www.w3.org/2000/svg" xmlns:xlink="http://www.w3.org/1999/xlink">
    <!-- Generator: Sketch 48.2 (47327) - http://www.bohemiancoding.com/sketch -->
    <title>4_help_icon</title>
    <desc>Created with Sketch.</desc>
    <defs></defs>
    <g id="Icons_Wallet" stroke="none" stroke-width="1" fill="none" fill-rule="evenodd">
        <g id="4_help_icon" fill="#000000">
            <path d="M9,1 C13.4182667,1 17,4.58173333 17,9 C17,13.4182667 13.4182667,17 9,17 C4.58173333,17 1,13.4182667 1,9 C1,4.58173333 4.58173333,1 9,1 Z M9,13.6666667 C9.55233333,13.6666667 10,13.2189333 10,12.6666667 C10,12.1144 9.55233333,11.6666667 9,11.6666667 C8.44773333,11.6666667 8,12.1144 8,12.6666667 C8,13.2189333 8.44773333,13.6666667 9,13.6666667 Z M10.4999333,8.9738 C11.1426667,8.58313333 11.6666667,8.0808 11.6666667,7.04273333 C11.6666667,5.85953333 10.846,5 9.34306667,5 C8.03793333,5 7.1184,5.62513333 6.5152,6.38413333 L7.47433333,7.39993333 C7.85993333,6.8864 8.5224,6.4288 9.175,6.4288 C9.76826667,6.4288 10.1044,6.74133333 10.1044,7.1878 C10.1044,7.7348 9.85726667,7.98033333 9.3134,8.3264 C8.73006667,8.68353333 8.26533333,9.17473333 8.26533333,10.0230667 C8.26533333,10.3020667 8.2752,10.5253333 8.30486667,10.8267333 L9.61006667,10.8267333 C9.61006667,9.72166667 9.60013333,9.4984 10.4999333,8.9738 Z" id="Combined-Shape"></path>
        </g>
    </g>
</svg>