<?xml version="1.0" encoding="UTF-8"?>
<svg width="18px" height="18px" viewBox="0 0 18 18" version="1.1" xmlns="http://www.w3.org/2000/svg" xmlns:xlink="http://www.w3.org/1999/xlink">
    <!-- Generator: Sketch 44.1 (41455) - http://www.bohemiancoding.com/sketch -->
    <title>5_promotion_icon</title>
    <desc>Created with Sketch.</desc>
    <defs></defs>
    <g id="Page-1" stroke="none" stroke-width="1" fill="none" fill-rule="evenodd">
        <g id="5_promotion_icon" fill-rule="nonzero" fill="#121212">
            <path d="M11.8246667,12.9629333 L9.05413333,11.2760667 L6.2836,12.9629333 L7.0188,9.78366667 L4.571,7.6446 L7.79433333,7.36873333 L9.05413333,4.37033333 L10.3138667,7.36873333 L13.5372,7.6446 L11.0894667,9.78366667 L11.8246667,12.9629333 Z M9,1 C4.58173333,1 1,4.58166667 1,9 C1,13.4182667 4.58173333,17 9,17 C13.4182667,17 17,13.4182667 17,9 C17,4.58166667 13.4182667,1 9,1 L9,1 Z" id="Fill-1"></path>
        </g>
    </g>
</svg>