{
    "currentPage": {
        "url": "/card/unknow-transaction"
    },
    "pages": {
        "cardBlockNormal": {
            "url": "/card/block-normal"
        },
        "cardActivateSwitch": {
            "url": "/card/activate-switch"
        }
    },
    "template": {
        "tag": "cells-template-paper-drawer-panel",
        "properties": {
            "animationType": "verticalUp",
            "disableEdgeSwipe": true,
            "headerFixed": true,
            "resetScroll": true
        }
    },
    "components": [
        {
            "zone": "app__header",
            "type": "UI",
            "tag": "cells-component-app-header",
            "properties": {
                "iconLeft": "coronita:close",
                "text": "notrecognized-operation--heading",
                "iconSize": "22",
                "cellsConnections": {
                    "out": {
                        "nro_navigation_channel_header": {
                            "bind": "left-button-pressed",
                            "forward-to-native": true
                        }
                    }
                }
            }
        },
        {
            "zone": "app__main",
            "type": "UI",
            "tag": "cells-shap-notrecognized-operation",
            "properties": {
                "mainIcon": "shap:ilu_transaction_alert",
                "tel": "+525552262663",
                "cellsConnections": {
                    "in": {
                        "nro_information_channel": {
                            "bind": "setHiddenButtons"
                        }
                    },
                    "out": {
                        "nro_powerof_card_channel": {
                            "bind": "notrecognized-poweroff-card-click",
                            "link": {
                                "cleanUntil": "cardUnknowTransaction",
                                "page": "cardActivateSwitch"
                            }
                        },
                        "nro_block_card_channel": {
                            "bind": "notrecognized-block-card-click",
                            "link": {
                                "cleanUntil": "cardUnknowTransaction",
                                "page": "cardBlockNormal"
                            }
                        },
                        "nro_call_to_bancomer_channel": {
                            "bind": "notrecognized-call-to-bancomer-click",
                            "forward-to-native": true
                        },
                        "nro_login_channel": {
                            "bind": "notrecognized-login-click",
                            "forward-to-native": true
                        }
                    }
                }
            }
        },
        {
            "zone": "app__footer",
            "type": "UI",
            "tag": "cells-shap-cta-container",
            "properties": {}
        }
    ]
}