{
    "currentPage": {
        "url": "/card/activate"
    },
    "pages": {},
    "template": {
        "tag": "cells-template-paper-drawer-panel",
        "properties": {
            "animationType": "verticalUp",
            "disableEdgeSwipe": true,
            "headerFixed": true,
            "resetScroll": true
        }
    },
    "components": [
        {
            "zone": "app__header",
            "type": "UI",
            "tag": "cells-component-app-header",
            "properties": {
                "iconLeft": "coronita:close",
                "iconSize": "22",
                "text": "activate-card--heading",
                "cellsConnections": {
                    "out": {
                        "ac_navigate_native_channel": {
                            "bind": "left-button-pressed",
                            "backStep": true
                        }
                    }
                }
            }
        },
        {
            "zone": "app__main",
            "type": "UI",
            "tag": "cells-shap-activate-card-page",
            "properties": {
                "cellsConnections": {
                    "in": {
                        "ac_card_number_channel": {
                            "bind": "setCardData"
                        },
                        "ac_primary_button_clicked": {
                            "bind": "firePageChanged"
                        }
                    },
                    "out": {
                        "ac_cells_request_channel": {
                            "bind": "send-card-activation",
                            "forward-to-native": true
                        }
                    }
                }
            }
        },
        {
            "zone": "app__footer",
            "type": "UI",
            "tag": "cells-shap-cta-container",
            "properties": {
                "primaryBtnText": "activate-card--button",
                "cellsConnections": {
                    "out": {
                        "ac_primary_button_clicked": {
                            "bind": "primary-cta-tapped"
                        }
                    }
                }
            }
        }
    ]
}