<?xml version="1.0" encoding="UTF-8"?>
<svg width="18px" height="18px" viewBox="0 0 18 18" version="1.1" xmlns="http://www.w3.org/2000/svg" xmlns:xlink="http://www.w3.org/1999/xlink">
    <!-- Generator: Sketch 46.2 (44496) - http://www.bohemiancoding.com/sketch -->
    <title>2_link_icon</title>
    <desc>Created with Sketch.</desc>
    <defs></defs>
    <g id="Icons_Wallet" stroke="none" stroke-width="1" fill="none" fill-rule="evenodd">
        <g id="2_link_icon" fill="#000000">
            <g id="Group" transform="translate(1.000000, 4.000000)">
                <path d="M3.54736036,9.78597297 C1.49453221,9.1631712 0,7.25247963 0,5 C0,2.2386 2.2416,0 4.99666667,0 L10.6666667,0 L8.66666667,2 L4.99713333,2 C3.3416,2 2,3.34313333 2,5 C2,6.65346667 3.34186667,8 4.99713333,8 L5.33333333,8 L3.54736036,9.78597297 L3.54736036,9.78597297 Z" id="Path"></path>
                <path d="M6,10 L8,8 L11.0028667,8 C12.6584,8 14,6.65686667 14,5 C14,3.45251086 12.8246324,2.17387069 11.3170121,2.01632118 L12.9421902,0.391143182 C14.7388059,1.15005665 16,2.93081562 16,5 C16,7.7614 13.7584,10 11.0033333,10 L6,10 Z" id="Path"></path>
                <polygon id="Path" points="6 4 12 4 10 6 4 6"></polygon>
            </g>
        </g>
    </g>
</svg>