{
  "payload": {
    "components": [
      {
        "tagName": "component-data-manager-register-notification-store",
        "type": "DM",
        "properties": {
          "host": "http://artichoke.platform.bbva.com/devices/v0/",
          "country": "pe"
        }
      }
    ]
  }
}
