{
  "data": {
      "ARTICHOKE_PROD": {
          "hostUrl": "https://artichoke.platform.bbva.com/",
          "countryId": "mx",
          "analyticsEnvironment": "de",
          "grantingUrlPath": "",
          "grantingVersion": "V02",
          "apiUrlPath": "",
          "apiUrlPathExternalEntities":"",
          "useOfflineConfigs": true,
          "endpointUrl": {
              "geographic-places": "https://2084xmlcgj.execute-api.eu-west-1.amazonaws.com/prod/",
              "pois": "",
              "appConfig": "https://bbvalabs.com/glomo/app-config/mx/data.json",
              "videoCallServer": "https://platform.verishow.com",
              "videoCallSocket": "https://rtc10.verishow.com"
          }
      },
    "DEV": {
      "hostUrl": "https://deglomo.bancomermovil.com:443/",
      "countryId": "mx",
      "analyticsEnvironment": "de",
      "grantingUrlPath": "QSRV_A02/",
      "grantingVersion": "V02",
      "apiUrlPath": "SRVS_A02/",
      "apiUrlPathExternalEntities": "",
      "useOfflineConfigs": true,
      "endpointUrl": {
        "geographic-places": "https://2084xmlcgj.execute-api.eu-west-1.amazonaws.com/prod/",
        "pois": "",
        "feedback": "https://www.opinator.com/opi/glomo-test-app-mexico/",
        "appConfig": "https://bbvalabs.com/glomo/app-config/mx/data.json",
        "videoCallServer": "https://bc2.verishow.com"
      }
    },
    "TEST": {
      "hostUrl": "https://t-glomo-mx.prev.grupobbva.com/",
      "countryId": "mx",
      "analyticsEnvironment": "qa",
      "grantingUrlPath": "QSRV_A02/",
      "grantingVersion": "V02",
      "apiUrlPath": "SRVS_A02/",
      "apiUrlPathExternalEntities": "",
      "useOfflineConfigs": true,
      "endpointUrl": {
        "geographic-places": "https://2084xmlcgj.execute-api.eu-west-1.amazonaws.com/prod/",
        "pois": "",
        "feedback": "https://www.opinator.com/opi/glomo-test-app-mexico/",
        "appConfig": "https://bbvalabs.com/glomo/app-config/mx/data-qa.json",
        "videoCallServer": "https://bc2.verishow.com"
      }
    },
    "PRE_PROD": {
      "hostUrl": "https://lo-glomo-mx.prev.grupobbva.com:443/",
      "countryId": "mx",
      "analyticsEnvironment": "pro",
      "grantingUrlPath": "QSRV_A02/",
      "grantingVersion": "V02",
      "apiUrlPath": "SRVS_A02/",
      "apiUrlPathExternalEntities": "",
      "useOfflineConfigs": true,
      "endpointUrl": {
        "geographic-places": "https://2084xmlcgj.execute-api.eu-west-1.amazonaws.com/prod/",
        "pois": "",
        "feedback": "https://www.opinator.com/opi/glomo-test-app-mexico/",
        "appConfig": "https://bbvalabs.com/glomo/app-config/mx/data.json",
        "videoCallServer": "https://platform.verishow.com"
      }
    },
    "PROD": {
      "hostUrl": "https://glomo.bancomermovil.com/",
      "countryId": "mx",
      "analyticsEnvironment": "pro",
      "grantingUrlPath": "QSRV_A02/",
      "grantingVersion": "V02",
      "apiUrlPath": "SRVS_A02/",
      "apiUrlPathExternalEntities": "SRES_A02/",
      "useOfflineConfigs": true,
      "endpointUrl": {
        "geographic-places": "https://2084xmlcgj.execute-api.eu-west-1.amazonaws.com/prod/",
        "pois": "",
        "feedback": "https://www.opinator.com/opi/glomo-app-mexico/",
        "appConfig": "https://bbvalabs.com/glomo/app-config/mx/data.json",
        "videoCallServer": "https://platform.verishow.com"
      }
    }
  }
}
