<?xml version="1.0" encoding="UTF-8"?>
<svg width="18px" height="18px" viewBox="0 0 18 18" version="1.1" xmlns="http://www.w3.org/2000/svg" xmlns:xlink="http://www.w3.org/1999/xlink">
    <!-- Generator: Sketch 46.2 (44496) - http://www.bohemiancoding.com/sketch -->
    <title>2_get_out</title>
    <desc>Created with Sketch.</desc>
    <defs></defs>
    <g id="Icons_Wallet" stroke="none" stroke-width="1" fill="none" fill-rule="evenodd">
        <g id="2_get_out" fill="#000000">
            <path d="M9,17 C4.581722,17 1,13.418278 1,9 C1,4.581722 4.581722,1 9,1 C13.418278,1 17,4.581722 17,9 C17,13.418278 13.418278,17 9,17 Z M14,8.34276612 L14,8.26944861 L6.79905922,8.26944861 L8.66264557,6.47914584 L7.64333675,5.5 L4,9 L7.64333675,12.5 L8.66264557,11.5206355 L6.76044156,9.69345536 L12.6127233,9.69345536 L14,8.34276612 Z" id="icon-exit"></path>
        </g>
    </g>
</svg>